Vectorised true prevalence estimates — true_prevalence • testerror
…
prevalence.median (numeric) - the median estimate

prevalence.method (character) - the method of estimation

prevalence.upper (numeric) - the upper estimate

test (character) - the name of the test or panel

Ungrouped

    Examples

true_prevalence(c(1:50), 200, 2, 800, 25, 75)
#> # A tibble: 50 × 15
#>    prevalence.lower prevalence.median prevalence.upper prevalence.method
#>               <dbl>             <dbl>            <dbl> <chr>            
#>  1          0                 0.00373           0.0420 lang-reiczigel   
#>  2          0                 0.0112            0.0534 lang-reiczigel   
#>  3          0                 0.0188            0.0644 lang-reiczigel   
#>  4          0.00313           0.0263            0.0751 lang-reiczigel   
#>  5          0.00787           0.0338            0.0856 lang-reiczigel   
#>  6          0.0128            0.0413            0.0959 lang-reiczigel   
#>  7          0.0179            0.0488            0.106  lang-reiczigel   
#>  8          0.0231            0.0564            0.116  lang-reiczigel   
#>  9          0.0284            0.0639            0.126  lang-reiczigel   
#> 10          0.0338            0.0714            0.136  lang-reiczigel   
#> # ℹ 40 more rows
#> # ℹ 11 more variables: prevalence.label <chr>, spec.median <dbl>,
#> #   spec.lower <dbl>, spec.upper <dbl>, spec.label <chr>, sens.median <dbl>,
#> #   sens.lower <dbl>, sens.upper <dbl>, sens.label <chr>, pos_obs <int>,
#> #   n_obs <dbl>
…
